MK TEST FOR ALL CONTIGS
…
## <U+221A> ggplot2 3.3.2     <U+221A> purrr   0.3.4
## <U+221A> tibble  3.0.3     <U+221A> dplyr   1.0.2
## <U+221A> tidyr   1.1.2     <U+221A> stringr 1.4.0
## <U+221A> readr   1.4.0     <U+221A> forcats 0.5.0

## Warning: package 'readr' was built under R version 4.0.3

## -- Conflicts ------------------------------------------ tidyverse_conflicts() --
## x dplyr::filter() masks stats::filter()
## x dplyr::lag()    masks stats::lag()

all_contigs_syn_nonsyn_INFO2 <- readRDS("C:/Users/Aysevil/Dropbox/Aarhus Lectures/Project/cluster_files/syn_nonsyn_data.rds")
all_contigs_syn_nonsyn_INFO2 %>%  filter(fixed_poly == "fixed")

## # A tibble: 9,464 x 14
##    snp    good  rate   nb2   nb1   nb0 contig   pos ref   alt   freq_ref
##    <chr> <int> <dbl> <dbl> <dbl> <dbl> <chr>  <int> <chr> <chr>    <dbl>
##  1 AT:C~   238 0.960     0     0   238 AT:Co~  1054 G     A            1
##  2 AT:C~   240 0.968     0     0   240 AT:Co~  1151 C     T            1
##  3 AT:C~   237 0.956     0     0   237 AT:Co~   118 C     A            1
##  4 AT:C~   242 0.976     0     0   242 AT:Co~  1200 T     A            1
##  5 AT:C~   243 0.980     0     0   243 AT:Co~  1273 G     A            1
##  6 AT:C~   244 0.984     0     0   244 AT:Co~  1291 G     C            1
##  7 AT:C~   244 0.984     0     0   244 AT:Co~  1404 T     C            1
##  8 AT:C~   244 0.984     0     0   244 AT:Co~  1419 C     T            1
##  9 AT:C~   244 0.984     0     0   244 AT:Co~  1453 C     T            1
## 10 AT:C~   244 0.984     0     0   244 AT:Co~  1455 G     A            1
## # ... with 9,454 more rows, and 3 more variables: freq_alt <dbl>,
## #   fixed_poly <chr>, syn_nonsyn <chr>
…
  cont_matrix <- matrix(c(Fn[i], Pn[i], Fs[i], Ps[i]), ncol = 2)
  p_val[i] <- fisher.test(cont_matrix)$p.value
  
}

avgerage_alpha <- 1 - (sum(avg_alpha1)/sum(avg_alpha2))
avgerage_alpha # negative there is an excess f nonsynoymous polymorphisms

## [1] -0.0631748

MK_test_all2 <- tibble(contigs = contigs, Fn = Fn, Fs = Fs, Pn = Pn, Ps = Ps, BetweenN_S = FnFs, WithinN_S = PnPs, DoS = DoS, NI = NI, a = alpha, p.val = p_val)

MK_test_all2 %>% arrange(DoS, decreasing = FALSE)

## # A tibble: 415 x 11
##    contigs    Fn    Fs    Pn    Ps BetweenN_S WithinN_S    DoS     NI       a
##    <chr>   <dbl> <dbl> <dbl> <dbl>      <dbl>     <dbl>  <dbl>  <dbl>   <dbl>
##  1 AT:Con~     0     3     4     2      0          2    -0.667 Inf    -Inf   
##  2 AT:Con~     0     1    32    24      0          1.33 -0.571 Inf    -Inf   
##  3 AT:Con~     0     1    10     9      0          1.11 -0.526 Inf    -Inf   
##  4 FC:Con~     0     8    22    25      0          0.88 -0.468 Inf    -Inf   
##  5 AT:Con~     2    10    53    35      0.2        1.51 -0.436   7.57   -6.57
##  6 AT:Con~     3    13    18    11      0.231      1.64 -0.433   7.09   -6.09
##  7 AT:Con~     1     4    34    20      0.25       1.7  -0.430   6.8    -5.8 
##  8 AT:Con~     1     8    14    13      0.125      1.08 -0.407   8.62   -7.62
##  9 FC:Con~     2     4    13     5      0.5        2.6  -0.389   5.2    -4.2 
## 10 AT:Con~     3    21    94    90      0.143      1.04 -0.386   7.31   -6.31
## # ... with 405 more rows, and 1 more variable: p.val <dbl>

MK_test_all2 %>% filter(a > 0)

## # A tibble: 179 x 11
##    contigs    Fn    Fs    Pn    Ps BetweenN_S WithinN_S    DoS    NI      a
##    <chr>   <dbl> <dbl> <dbl> <dbl>      <dbl>     <dbl>  <dbl> <dbl>  <dbl>
##  1 AT:Con~     8    16    24    51      0.5       0.471 0.0133 0.941 0.0588
##  2 AT:Con~    10     7    20    15      1.43      1.33  0.0168 0.933 0.0667
##  3 AT:Con~    10    11    38    45      0.909     0.844 0.0184 0.929 0.0711
##  4 AT:Con~     7     6    44    51      1.17      0.863 0.0753 0.739 0.261 
##  5 AT:Con~    21    12    72    59      1.75      1.22  0.0867 0.697 0.303 
##  6 AT:Con~    21    11   146    96      1.91      1.52  0.0529 0.797 0.203 
##  7 AT:Con~    28    21    40    64      1.33      0.625 0.187  0.469 0.531 
##  8 AT:Con~    46    19   226   119      2.42      1.90  0.0526 0.784 0.216 
##  9 AT:Con~    13     2    68    45      6.5       1.51  0.265  0.232 0.768 
## 10 AT:Con~     5    24    29   167      0.208     0.174 0.0245 0.834 0.166 
## # ... with 169 more rows, and 1 more variable: p.val <dbl>
…
MK_test_all2

## # A tibble: 415 x 11
##    contigs    Fn    Fs    Pn    Ps BetweenN_S WithinN_S      DoS      NI
##    <chr>   <dbl> <dbl> <dbl> <dbl>      <dbl>     <dbl>    <dbl>   <dbl>
##  1 AT:Con~    22    20    84    43      1.1      1.95   -0.138     1.78 
##  2 AT:Con~     0     4     3    57      0        0.0526 -0.05    Inf    
##  3 AT:Con~    28    28    39    31      1        1.26   -0.0571    1.26 
##  4 AT:Con~     1     8     5    25      0.125    0.2    -0.0556    1.6  
##  5 AT:Con~     9     6    60    39      1.5      1.54   -0.00606   1.03 
##  6 AT:Con~     8    16    24    51      0.5      0.471   0.0133    0.941
##  7 AT:Con~    10     7    20    15      1.43     1.33    0.0168    0.933
##  8 AT:Con~     2    10    53    35      0.2      1.51   -0.436     7.57 
##  9 AT:Con~    10    11    38    45      0.909    0.844   0.0184    0.929
## 10 AT:Con~     3     4    35    17      0.75     2.06   -0.245     2.75 
## # ... with 405 more rows, and 2 more variables: a <dbl>, p.val <dbl>
…
