nucleotide diversity
…
## Warning: package 'readr' was built under R version 4.0.3

## -- Conflicts ------------------------------------------ tidyverse_conflicts() --
## x dplyr::filter() masks stats::filter()
## x dplyr::lag()    masks stats::lag()

all_contigs_syn_nonsyn_INFO <- readRDS("C:/Users/Aysevil/Dropbox/Aarhus Lectures/Project/cluster_files/syn_nonsyn_data.rds")

all_contigs_syn_nonsyn_INFO

## # A tibble: 49,553 x 14
##    snp    good  rate   nb2   nb1   nb0 contig   pos ref   alt   freq_ref
##    <chr> <int> <dbl> <dbl> <dbl> <dbl> <chr>  <int> <chr> <chr>    <dbl>
##  1 AT:C~   240 0.968     0     4   236 AT:Co~  1002 A     C        0.992
##  2 AT:C~   239 0.964     0     1   238 AT:Co~  1012 G     A        0.998
##  3 AT:C~   239 0.964     0     2   237 AT:Co~  1019 A     G        0.996
##  4 AT:C~   239 0.964     1    27   211 AT:Co~  1025 G     A        0.939
##  5 AT:C~   237 0.956     0     3   234 AT:Co~   105 G     T        0.994
##  6 AT:C~   238 0.960     0     0   238 AT:Co~  1054 G     A        1    
##  7 AT:C~   238 0.960     0     2   236 AT:Co~  1068 T     C        0.996
##  8 AT:C~   238 0.960     0     1   237 AT:Co~  1096 A     T        0.998
##  9 AT:C~   240 0.968     0     4   236 AT:Co~  1143 T     A        0.992
## 10 AT:C~   240 0.968     0     0   240 AT:Co~  1151 C     T        1    
## # ... with 49,543 more rows, and 3 more variables: freq_alt <dbl>,
## #   fixed_poly <chr>, syn_nonsyn <chr>
…
Contigs of interest

contigs_of_interest <- c("AT:Contig660", "AT:Contig4190", "FC:Contig12377", "FC:Contig71000", "FC:JX946357.1", "FC:JX946358.1", "FC:KC461937.1", "FC:KM272331.1", "FC:KM272332.1", "FC:KR920616.1")

df_contig_of_interests <- df_all_poly.5 %>% filter(contig %in% contigs_of_interest)
df_contig_of_interests

## # A tibble: 993 x 28
##    snp   good.t.vulgaris rate.t.vulgaris nb2.t.vulgaris nb1.t.vulgaris
##    <chr>           <int>           <dbl>          <dbl>          <dbl>
##  1 AT:C~             240           0.968              0             18
##  2 AT:C~             240           0.968              0             18
##  3 AT:C~             242           0.976              0              1
##  4 AT:C~             241           0.972              1             18
##  5 AT:C~             240           0.968              0              1
##  6 AT:C~             241           0.972              0              4
##  7 AT:C~             242           0.976              0              2
##  8 AT:C~             242           0.976              0              2
##  9 AT:C~             241           0.972              0              2
## 10 AT:C~             241           0.972              0             14
## # ... with 983 more rows, and 23 more variables: nb0.t.vulgaris <dbl>,
## #   contig <chr>, pos <int>, ref <chr>, alt <chr>, freq_ref.t.vulgaris <dbl>,
## #   freq_alt.t.vulgaris <dbl>, good.t.embergeri <int>, rate.t.embergeri <dbl>,
## #   nb2.t.embergeri <dbl>, nb1.t.embergeri <dbl>, nb0.t.embergeri <dbl>,
## #   freq_ref.t.embergeri <dbl>, freq_alt.t.embergeri <dbl>, shared_poly <chr>,
## #   only_T.vulgaris <chr>, only_T.embergeri <chr>, ancestral_derived <chr>,
## #   ancestral_freq.t.vulgaris <dbl>, derived_freq.t.vulgaris <dbl>,
## #   contig_length <dbl>, nuc.div <dbl>, syn_nonsyn <chr>
…
# piN/piS ratio
nuc.div.syn2 = df_all_poly.5 %>% group_by(contig) %>%  filter(syn_nonsyn == "synonymous") %>% summarise(nuc.div.syn = mean(nuc.div))

## `summarise()` ungrouping output (override with `.groups` argument)

nuc.div.nonsyn2 = df_all_poly.5 %>% group_by(contig) %>%   filter(syn_nonsyn == "nonsynonymous") %>% summarise(nuc.div.nonsyn = mean(nuc.div))

## `summarise()` ungrouping output (override with `.groups` argument)

df_all_contigs <- nuc.div.syn2 %>% left_join(nuc.div.nonsyn2, by = "contig")
df_all_contigs <- df_all_contigs %>% mutate(piN_piS_ratio = nuc.div.nonsyn / nuc.div.syn)
df_all_contigs

## # A tibble: 411 x 4
##    contig        nuc.div.syn nuc.div.nonsyn piN_piS_ratio
##    <chr>               <dbl>          <dbl>         <dbl>
##  1 AT:Contig1003   0.0000201     0.0000207          1.03 
##  2 AT:Contig1004   0.0000245     0.00000963         0.392
##  3 AT:Contig1008   0.0000386     0.0000125          0.325
##  4 AT:Contig1013   0.0000505     0.0000274          0.542
##  5 AT:Contig1030   0.0000527     0.0000221          0.419
##  6 AT:Contig1105   0.0000919     0.0000791          0.861
##  7 AT:Contig1107   0.0000228     0.0000480          2.11 
##  8 AT:Contig1113   0.0000909     0.0000242          0.267
##  9 AT:Contig112    0.0000338     0.0000234          0.693
## 10 AT:Contig1145   0.0000145     0.00000932         0.643
## # ... with 401 more rows
…
## `summarise()` ungrouping output (override with `.groups` argument)

df_nonsyn_contigs<- df_all_poly.5 %>% filter(syn_nonsyn == "nonsynonymous") %>% group_by(contig) %>% summarise(nuc.diversity = mean(nuc.div))

## `summarise()` ungrouping output (override with `.groups` argument)

# contig of interest
nuc.div_interest <- tibble(contig = (df_syn_contigs %>% filter(contig %in% contigs_of_interest))$contig,
                           syn_div = (df_syn_contigs %>% filter(contig %in% contigs_of_interest))$nuc.diversity,
                           nonsyn_div = (df_nonsyn_contigs %>% filter(contig %in% contigs_of_interest))$nuc.diversity,
                           ratio = nonsyn_div/syn_div)
df_syn_contigs

## # A tibble: 411 x 2
##    contig        nuc.diversity
##    <chr>                 <dbl>
##  1 AT:Contig1003     0.0000201
##  2 AT:Contig1004     0.0000245
##  3 AT:Contig1008     0.0000386
##  4 AT:Contig1013     0.0000505
##  5 AT:Contig1030     0.0000527
##  6 AT:Contig1105     0.0000919
##  7 AT:Contig1107     0.0000228
##  8 AT:Contig1113     0.0000909
##  9 AT:Contig112      0.0000338
## 10 AT:Contig1145     0.0000145
## # ... with 401 more rows
…
df_all_poly.5 %>% filter(contig == "FC:Contig71000") %>% arrange(pos, decreaing = TRUE)

## # A tibble: 87 x 28
##    snp   good.t.vulgaris rate.t.vulgaris nb2.t.vulgaris nb1.t.vulgaris
##    <chr>           <int>           <dbl>          <dbl>          <dbl>
##  1 FC:C~             245           0.988              0              3
##  2 FC:C~             245           0.988              1              6
##  3 FC:C~             245           0.988              0              8
##  4 FC:C~             245           0.988              0              3
##  5 FC:C~             246           0.992              0              3
##  6 FC:C~             246           0.992              0              8
##  7 FC:C~             246           0.992              0              1
##  8 FC:C~             246           0.992              0              1
##  9 FC:C~             246           0.992              0             14
## 10 FC:C~             246           0.992              0              2
## # ... with 77 more rows, and 23 more variables: nb0.t.vulgaris <dbl>,
## #   contig <chr>, pos <int>, ref <chr>, alt <chr>, freq_ref.t.vulgaris <dbl>,
## #   freq_alt.t.vulgaris <dbl>, good.t.embergeri <int>, rate.t.embergeri <dbl>,
## #   nb2.t.embergeri <dbl>, nb1.t.embergeri <dbl>, nb0.t.embergeri <dbl>,
## #   freq_ref.t.embergeri <dbl>, freq_alt.t.embergeri <dbl>, shared_poly <chr>,
## #   only_T.vulgaris <chr>, only_T.embergeri <chr>, ancestral_derived <chr>,
## #   ancestral_freq.t.vulgaris <dbl>, derived_freq.t.vulgaris <dbl>,
## #   contig_length <dbl>, nuc.div <dbl>, syn_nonsyn <chr>
…
